{
  "name": "background_tasks",
  "do": "<ul><li>To indicate tasks that are running in the background.</li></ul>",
  "dont": "",
  "tags": ["pending", "loading" ],
  "category": "communication",
  "type": "static"
}
