{
  "name": "content_lifecycle_management",
  "do": "<ul><li>To illustrate the planning cycle</li></ul>",
  "dont": "<ul><li>To represent recycling documents actions</li></ul>",
  "tags": ["content", "lifecycle"],
  "category": "communication",
  "type": "static"
}
